<?xml version="1.0" encoding="utf-8"?>
<!-- Generator: Adobe Illustrator 21.1.0, SVG Export Plug-In . SVG Version: 6.00 Build 0)  -->
<svg version="1.1" id="Ebene_1" xmlns="http://www.w3.org/2000/svg" xmlns:xlink="http://www.w3.org/1999/xlink" x="0px" y="0px"
	 viewBox="0 0 480 640" style="enable-background:new 0 0 480 640;" xml:space="preserve">
<style type="text/css">
	.st0{display:none;}
	.st1{display:inline;fill:#02084D;}
	.st2{display:inline;fill:#A195C4;}
	.st3{display:inline;fill:#FFFFFF;}
	.st4{display:inline;fill:url(#SVGID_1_);}
	.st5{display:inline;fill:url(#SVGID_2_);}
	.st6{display:none;opacity:0.5;fill:#02084D;}
	.st7{display:none;opacity:0.24;}
	.st8{display:inline;fill:url(#SVGID_3_);}
	.st9{display:none;opacity:0.51;}
	.st10{display:inline;}
	.st11{fill:url(#SVGID_4_);}
	.st12{fill:url(#SVGID_5_);}
	.st13{display:none;opacity:0.55;}
	.st14{display:inline;fill:url(#SVGID_6_);}
	.st15{fill:#FFFFFF;}
	.st16{display:none;opacity:0.93;}
	.st17{display:inline;fill:url(#SVGID_7_);}
	.st18{display:inline;fill:url(#SVGID_8_);}
	.st19{display:none;opacity:0.2;}
	.st20{display:inline;opacity:0.23;fill:#B3B3B3;}
	.st21{fill:#B3B3B3;stroke:#FFFFFF;stroke-width:2;stroke-miterlimit:10;}
	.st22{display:inline;fill:url(#SVGID_9_);}
	.st23{display:inline;fill:url(#SVGID_10_);}
	.st24{display:inline;fill:url(#SVGID_11_);}
	.st25{display:inline;fill:url(#SVGID_12_);}
	.st26{display:inline;fill:url(#SVGID_13_);}
	.st27{display:inline;filter:url(#Adobe_OpacityMaskFilter);}
	.st28{display:inline;mask:url(#SVGID_14_);}
	.st29{display:inline;fill:url(#SVGID_15_);}
	.st30{display:none;fill:url(#SVGID_16_);}
	.st31{display:inline;opacity:0.23;fill:#91D7F2;}
	.st32{display:inline;fill:url(#SVGID_17_);}
	.st33{display:inline;fill:url(#SVGID_18_);}
	.st34{opacity:0.5;fill:#02084D;}
	.st35{opacity:0.24;}
	.st36{display:inline;fill:url(#SVGID_19_);}
	.st37{display:inline;fill:url(#SVGID_20_);}
	.st38{opacity:0.51;}
	.st39{fill:url(#SVGID_21_);}
	.st40{fill:url(#SVGID_22_);}
	.st41{opacity:0.55;}
	.st42{display:inline;fill:url(#SVGID_23_);}
	.st43{display:inline;fill:url(#SVGID_24_);}
	.st44{display:inline;fill:#5460BA;}
	.st45{display:none;fill:#6A4DB2;}
	.st46{display:inline;fill:#6A4DB2;}
</style>
<g id="Ebene_20" class="st0">
	<rect class="st1" width="480" height="640"/>
</g>
<g id="Schräg">
	<g class="st0">
		<path class="st2" d="M413,447.1c0,80-75.9,144.8-169.5,144.8S74,527,74,447.1c0-37.7,17.8-71,44.5-97.7
			c76.9-76.9,76.1-96.6,76.1-189c0-22,24.6-37.4,49-37.4c25.2,0,50,15.4,50,37.6c0,92.2-0.1,113.6,75,188.7
			C395.2,376,413,409.4,413,447.1z"/>
	</g>
	<g class="st0">
		<path class="st3" d="M416,451.1c0,80-75.9,144.8-169.5,144.8S77,531,77,451.1c0-37.7,17.8-71,44.5-97.7
			c76.9-76.9,76.1-96.6,76.1-189c0-22,24.6-37.4,49-37.4c25.2,0,50,15.4,50,37.6c0,92.2-0.1,113.6,75,188.7
			C398.2,380,416,413.4,416,451.1z"/>
	</g>
	<g class="st0">
		<linearGradient id="SVGID_1_" gradientUnits="userSpaceOnUse" x1="246.5" y1="127" x2="246.5" y2="595.8622">
			<stop  offset="0" style="stop-color:#91D7F2"/>
			<stop  offset="0.1238" style="stop-color:#93D3EF"/>
			<stop  offset="0.2599" style="stop-color:#9AC5E8"/>
			<stop  offset="0.4018" style="stop-color:#A5AFDC"/>
			<stop  offset="0.5478" style="stop-color:#B591CB"/>
			<stop  offset="0.6969" style="stop-color:#C969B5"/>
			<stop  offset="0.8483" style="stop-color:#E2389A"/>
			<stop  offset="1" style="stop-color:#FF007A"/>
		</linearGradient>
		<path class="st4" d="M416,451.1c0,80-75.9,144.8-169.5,144.8S77,531,77,451.1c0-37.7,17.8-71,44.5-97.7
			c76.9-76.9,76.1-96.6,76.1-189c0-22,24.6-37.4,49-37.4c25.2,0,50,15.4,50,37.6c0,92.2-0.1,113.6,75,188.7
			C398.2,380,416,413.4,416,451.1z"/>
	</g>
	<g class="st0">
		<linearGradient id="SVGID_2_" gradientUnits="userSpaceOnUse" x1="113.7348" y1="194.4098" x2="333.7491" y2="575.4857">
			<stop  offset="0" style="stop-color:#810464"/>
			<stop  offset="1" style="stop-color:#FF007A"/>
		</linearGradient>
		<path class="st5" d="M416,451.1c0,80-75.9,144.8-169.5,144.8S77,531,77,451.1c0-37.7,17.8-71,44.5-97.7
			c76.9-76.9,76.1-96.6,76.1-189c0-22,24.6-37.4,49-37.4c25.2,0,50,15.4,50,37.6c0,92.2-0.1,113.6,75,188.7
			C398.2,380,416,413.4,416,451.1z"/>
	</g>
	<path class="st6" d="M246.5,570.9c-79.7,0-144.5-53.7-144.5-119.8c0-35.5,20.2-63.1,37.1-80c80.4-80.4,83.4-106.5,83.4-204v-2.7
		c0-4.9,10.7-12.4,24-12.4c13.8,0,25,7.6,25,12.6v0.2c0,47.4,0,78.7,10.8,109c10.4,29.1,29.8,55.4,71.5,97.1
		c17,17,37.2,44.7,37.2,80.1C391,517.1,326.2,570.9,246.5,570.9z"/>
	<g class="st7">
		<linearGradient id="SVGID_3_" gradientUnits="userSpaceOnUse" x1="128.1955" y1="217.0361" x2="323.2392" y2="554.8616">
			<stop  offset="0" style="stop-color:#91D7F2"/>
			<stop  offset="1" style="stop-color:#FF007A"/>
		</linearGradient>
		<path class="st8" d="M248.5,571.9c-79.7,0-144.5-53.7-144.5-119.8c0-35.5,20.2-63.1,37.1-80c80.4-80.4,83.4-106.5,83.4-204v-2.7
			c0-4.9,10.7-12.4,24-12.4c13.8,0,25,7.6,25,12.6v0.2c0,47.4,0,78.7,10.8,109c10.4,29.1,29.8,55.4,71.5,97.1
			c17,17,37.2,44.7,37.2,80.1C393,518.1,328.2,571.9,248.5,571.9z"/>
	</g>
	<g class="st9">
		<g class="st10">
			<linearGradient id="SVGID_4_" gradientUnits="userSpaceOnUse" x1="113.7348" y1="194.4098" x2="333.7491" y2="575.4857">
				<stop  offset="0" style="stop-color:#91D7F2"/>
				<stop  offset="0.1214" style="stop-color:#9BC4E8"/>
				<stop  offset="0.3672" style="stop-color:#B494CC"/>
				<stop  offset="0.7112" style="stop-color:#DB46A1"/>
				<stop  offset="1" style="stop-color:#FF007A"/>
			</linearGradient>
			<path class="st11" d="M371.5,353.3c-75.1-75.1-75-96.5-75-188.7c0-22.2-24.8-37.6-50-37.6c-24.3,0-49,15.4-49,37.4
				c0,92.4,0.8,112.1-76.1,189C94.7,380.1,77,413.4,77,451.1c0,80,75.9,144.8,169.5,144.8S416,531,416,451.1
				C416,413.4,398.2,380,371.5,353.3z M247.5,571.9c-79.7,0-144.5-53.7-144.5-119.8c0-35.5,20.2-63.1,37.1-80
				c72.5-72.5,82.1-100.9,83.3-177.3c6.6,2.3,12.4,4.3,25.6,4.3c13.8,0,23-5,23.6-5.6c0.4,32.8,2.2,57.4,10.7,81.4
				c10.4,29.1,29.8,55.4,71.5,97.1c17,17,37.2,44.7,37.2,80.1C392,518.1,327.2,571.9,247.5,571.9z"/>
		</g>
	</g>
	<g class="st9">
		<g class="st10">
			<linearGradient id="SVGID_5_" gradientUnits="userSpaceOnUse" x1="113.7348" y1="194.4098" x2="333.7491" y2="575.4857">
				<stop  offset="0" style="stop-color:#91D7F2"/>
				<stop  offset="0.1214" style="stop-color:#9BC4E8"/>
				<stop  offset="0.3672" style="stop-color:#B494CC"/>
				<stop  offset="0.7112" style="stop-color:#DB46A1"/>
				<stop  offset="1" style="stop-color:#FF007A"/>
			</linearGradient>
			<path class="st12" d="M371.5,353.3c-75.1-75.1-75-96.5-75-188.7c0-22.2-24.8-37.6-50-37.6c-24.3,0-49,15.4-49,37.4
				c0,92.4,0.8,112.1-76.1,189C94.7,380.1,77,413.4,77,451.1c0,80,75.9,144.8,169.5,144.8S416,531,416,451.1
				C416,413.4,398.2,380,371.5,353.3z M247.5,571.9c-79.7,0-144.5-53.7-144.5-119.8c0-35.5,20.2-63.1,37.1-80
				c80.4-80.4,83.4-106.5,83.4-204v-2.7c0-4.9,10.7-12.4,24-12.4c13.8,0,25,7.6,25,12.6v0.2c0,47.4,0,78.7,10.8,109
				c10.4,29.1,29.8,55.4,71.5,97.1c17,17,37.2,44.7,37.2,80.1C392,518.1,327.2,571.9,247.5,571.9z"/>
		</g>
	</g>
	<g class="st13">
		<linearGradient id="SVGID_6_" gradientUnits="userSpaceOnUse" x1="101.981" y1="502.1302" x2="391.0186" y2="502.1302">
			<stop  offset="0" style="stop-color:#02084D"/>
			<stop  offset="1" style="stop-color:#91D7F2"/>
		</linearGradient>
		<path class="st14" d="M246.5,570.9c-79.7,0-144.5-53.7-144.5-119.8c111.2-59.6,169.3,55.3,289,0
			C391,517.1,326.2,570.9,246.5,570.9z"/>
	</g>
	<g>
		<path class="st15" d="M199.7,600.8c-82.8-22.2-140.9-86.4-147.6-154.9c-0.8-7.9-0.9-15.9-0.2-23.9
			c172.7-62,219.2,105.3,376.4,23.1c2.4,16.4,2.1,34-2.8,52.1C402.9,581.6,301.6,628.1,199.7,600.8z"/>
	</g>
	<g class="st16">
		
			<linearGradient id="SVGID_7_" gradientUnits="userSpaceOnUse" x1="272.4775" y1="523.328" x2="376.9807" y2="342.3231" gradientTransform="matrix(0.9659 0.2588 -0.2588 0.9659 27.1531 -60.2483)">
			<stop  offset="0" style="stop-color:#810464"/>
			<stop  offset="1" style="stop-color:#FF007A"/>
		</linearGradient>
		<path class="st17" d="M211.3,538.4c-81-21.7-132.3-94-114.3-161.1c129.3-30.3,157,102.3,293.8,78.7
			C372.8,523.2,292.2,560.1,211.3,538.4z"/>
	</g>
	<g class="st0">
		
			<radialGradient id="SVGID_8_" cx="246.5" cy="361.4311" r="204.5661" gradientTransform="matrix(1 0 0 1.15 0 -54.2147)" gradientUnits="userSpaceOnUse">
			<stop  offset="0" style="stop-color:#FF007A"/>
			<stop  offset="0.9511" style="stop-color:#94D2EF"/>
			<stop  offset="1" style="stop-color:#FFFFFF"/>
		</radialGradient>
		<path class="st18" d="M371.5,353.3c-75.1-75.1-75-96.5-75-188.7c0-22.2-24.8-37.6-50-37.6c-24.3,0-49,15.4-49,37.4
			c0,92.4,0.8,112.1-76.1,189C94.7,380.1,77,413.4,77,451.1c0,80,75.9,144.8,169.5,144.8S416,531,416,451.1
			C416,413.4,398.2,380,371.5,353.3z M247.8,571.3c-79.7,0-144.5-53.7-144.5-119.8c111.2-59.6,169.3,55.3,289,0
			C392.3,517.5,327.5,571.3,247.8,571.3z"/>
	</g>
	<g id="Ebene_29_Kopie_Kopie_3">
	</g>
	<g id="Bubbles" class="st19">
		
			<ellipse transform="matrix(0.2588 -0.9659 0.9659 0.2588 35.7858 436.0466)" class="st20" cx="302" cy="194.7" rx="12.5" ry="20.6"/>
		<circle class="st21" cx="224" cy="399" r="16"/>
		<radialGradient id="SVGID_9_" cx="274.5" cy="413.388" r="9.888" gradientUnits="userSpaceOnUse">
			<stop  offset="0" style="stop-color:#6E6E6E"/>
			<stop  offset="0.3413" style="stop-color:#707070"/>
			<stop  offset="0.5001" style="stop-color:#787878"/>
			<stop  offset="0.6213" style="stop-color:#848484"/>
			<stop  offset="0.7233" style="stop-color:#979797"/>
			<stop  offset="0.8132" style="stop-color:#AEAEAE"/>
			<stop  offset="0.8947" style="stop-color:#CCCCCC"/>
			<stop  offset="0.9681" style="stop-color:#EEEEEE"/>
			<stop  offset="1" style="stop-color:#FFFFFF"/>
		</radialGradient>
		<circle class="st22" cx="274.5" cy="413.4" r="9.9"/>
		<radialGradient id="SVGID_10_" cx="194.5" cy="390.388" r="9.888" gradientUnits="userSpaceOnUse">
			<stop  offset="0" style="stop-color:#6E6E6E"/>
			<stop  offset="0.3413" style="stop-color:#707070"/>
			<stop  offset="0.5001" style="stop-color:#787878"/>
			<stop  offset="0.6213" style="stop-color:#848484"/>
			<stop  offset="0.7233" style="stop-color:#979797"/>
			<stop  offset="0.8132" style="stop-color:#AEAEAE"/>
			<stop  offset="0.8947" style="stop-color:#CCCCCC"/>
			<stop  offset="0.9681" style="stop-color:#EEEEEE"/>
			<stop  offset="1" style="stop-color:#FFFFFF"/>
		</radialGradient>
		<circle class="st23" cx="194.5" cy="390.4" r="9.9"/>
		<radialGradient id="SVGID_11_" cx="312.5" cy="408.6108" r="6.1108" gradientUnits="userSpaceOnUse">
			<stop  offset="0" style="stop-color:#6E6E6E"/>
			<stop  offset="0.3413" style="stop-color:#707070"/>
			<stop  offset="0.5001" style="stop-color:#787878"/>
			<stop  offset="0.6213" style="stop-color:#848484"/>
			<stop  offset="0.7233" style="stop-color:#979797"/>
			<stop  offset="0.8132" style="stop-color:#AEAEAE"/>
			<stop  offset="0.8947" style="stop-color:#CCCCCC"/>
			<stop  offset="0.9681" style="stop-color:#EEEEEE"/>
			<stop  offset="1" style="stop-color:#FFFFFF"/>
		</radialGradient>
		<circle class="st24" cx="312.5" cy="408.6" r="6.1"/>
		<radialGradient id="SVGID_12_" cx="243.5" cy="384.6108" r="6.1108" gradientUnits="userSpaceOnUse">
			<stop  offset="0" style="stop-color:#6E6E6E"/>
			<stop  offset="0.3413" style="stop-color:#707070"/>
			<stop  offset="0.5001" style="stop-color:#787878"/>
			<stop  offset="0.6213" style="stop-color:#848484"/>
			<stop  offset="0.7233" style="stop-color:#979797"/>
			<stop  offset="0.8132" style="stop-color:#AEAEAE"/>
			<stop  offset="0.8947" style="stop-color:#CCCCCC"/>
			<stop  offset="0.9681" style="stop-color:#EEEEEE"/>
			<stop  offset="1" style="stop-color:#FFFFFF"/>
		</radialGradient>
		<circle class="st25" cx="243.5" cy="384.6" r="6.1"/>
		<radialGradient id="SVGID_13_" cx="237.5" cy="424.6108" r="6.1108" gradientUnits="userSpaceOnUse">
			<stop  offset="0" style="stop-color:#6E6E6E"/>
			<stop  offset="0.3413" style="stop-color:#707070"/>
			<stop  offset="0.5001" style="stop-color:#787878"/>
			<stop  offset="0.6213" style="stop-color:#848484"/>
			<stop  offset="0.7233" style="stop-color:#979797"/>
			<stop  offset="0.8132" style="stop-color:#AEAEAE"/>
			<stop  offset="0.8947" style="stop-color:#CCCCCC"/>
			<stop  offset="0.9681" style="stop-color:#EEEEEE"/>
			<stop  offset="1" style="stop-color:#FFFFFF"/>
		</radialGradient>
		<circle class="st26" cx="237.5" cy="424.6" r="6.1"/>
	</g>
	<g id="Kork_Kopie_Kopie_2">
		<g>
			<path class="st15" d="M412.2,55c4.6-17.1-19.6-38.5-54.1-47.7S292,4.5,287.4,21.6c-2,7.6-8.6,32.3-10.7,39.8
				c-4.6,17.1,19.6,38.5,54.1,47.7s66.1,2.8,70.7-14.3C403.5,87.3,410.1,62.6,412.2,55z"/>
		</g>
	</g>
	<g id="Kork_Kopie">
		<g>
			<g>
				<path class="st15" d="M430,365.9c-67.1-116.2-62.9-142.7-34.2-250.2c-2,7.6-35.9,14.5-67.9,5.9c-32.2-8.6-59.8-27.7-56.1-41.2
					c-28.7,107-37.9,132.7-156.6,201.2c-42.6,24.6-76.2,60.6-88.9,108.1c-27,100.7,46.7,207.9,164.6,239.5
					c117.9,31.6,235.3-24.4,262.3-125.1C465.8,456.6,454.6,408.6,430,365.9z M422.5,497.2c-22.3,83.2-122,128.9-222.4,102
					C99.8,572.4,36.3,482.9,58.6,399.7c12-44.7,46.7-72.7,73.8-88.3c115.8-66.9,137.4-99.3,164.7-195.2c7.6,5.1,14.1,9.6,30.8,14.1
					c17.3,4.6,30.6,1.5,31.6,0.9c-10.6,41.4-16.7,73-14,106.2c3.3,40.1,18.8,79.8,57.3,146.4C418.3,410.9,434.5,452.6,422.5,497.2z"
					/>
			</g>
		</g>
	</g>
	<g id="Kork_Kopie_Kopie" class="st0">
		<defs>
			<filter id="Adobe_OpacityMaskFilter" filterUnits="userSpaceOnUse" x="240" y="-33" width="209" height="183">
				<feColorMatrix  type="matrix" values="1 0 0 0 0  0 1 0 0 0  0 0 1 0 0  0 0 0 1 0"/>
			</filter>
		</defs>
		<mask maskUnits="userSpaceOnUse" x="240" y="-33" width="209" height="183" id="SVGID_14_" class="st10">
			<g style="filter:url(#Adobe_OpacityMaskFilter);">
			</g>
		</mask>
		<g class="st28">
			<g>
				
					<image style="overflow:visible;" width="209" height="183" xlink:href="1392F459C7083FF.png"  transform="matrix(1 0 0 1 240 -33)">
				</image>
			</g>
		</g>
	</g>
	<path class="st15" d="M286.7,145c3.1-9.6,6.2-19.8,9.4-30.9c4.3,3,13.4,9.6,30.7,14.3c18,4.8,30.2,2.5,34.1,1.3
		c-2.8,10.8-5.2,20.9-7.3,30.5C345.6,185.5,281.3,162.3,286.7,145z"/>
	<g id="Kork" class="st0">
		
			<linearGradient id="SVGID_15_" gradientUnits="userSpaceOnUse" x1="316.239" y1="200.4107" x2="350.0945" y2="141.7713" gradientTransform="matrix(0.9659 0.2588 -0.2113 0.7885 19.9276 -37.5656)">
			<stop  offset="0" style="stop-color:#B67E37"/>
			<stop  offset="1" style="stop-color:#8C5224"/>
		</linearGradient>
		<path class="st29" d="M338.9,182c2.3-8.4-9.7-18.9-26.6-23.5c-17-4.5-32.5-1.4-34.8,7c-1,3.7-4.3,15.9-5.3,19.6
			c-2.3,8.4,9.7,18.9,26.6,23.5s32.5,1.4,34.8-7C334.7,197.9,337.9,185.7,338.9,182z"/>
	</g>
	
		<linearGradient id="SVGID_16_" gradientUnits="userSpaceOnUse" x1="325.1807" y1="192.2805" x2="340.8553" y2="219.4298" gradientTransform="matrix(0.9659 0.2588 -0.2588 0.9659 27.1531 -60.2483)">
		<stop  offset="0" style="stop-color:#B67E37"/>
		<stop  offset="1" style="stop-color:#8C5224"/>
	</linearGradient>
	<path class="st30" d="M277.8,226.8c1.5-4.5,2.9-9.4,4.4-14.6c2,1.4,6.3,4.6,14.5,6.8c8.5,2.3,14.3,1.2,16.1,0.6
		c-1.3,5.1-2.5,9.9-3.5,14.5C305.7,246,275.3,235,277.8,226.8z"/>
</g>
<g id="Ebene_29_Kopie_Kopie_Kopie" class="st0">
	<ellipse class="st31" cx="241.9" cy="46.3" rx="43.7" ry="26.5"/>
</g>
<g id="White" class="st0">
	<g>
		<path class="st2" d="M413,447.1c0,80-75.9,144.8-169.5,144.8S74,527,74,447.1c0-37.7,17.8-71,44.5-97.7
			c76.9-76.9,76.1-96.6,76.1-189c0-22,24.6-37.4,49-37.4c25.2,0,50,15.4,50,37.6c0,92.2-0.1,113.6,75,188.7
			C395.2,376,413,409.4,413,447.1z"/>
	</g>
	<g>
		<path class="st3" d="M416,451.1c0,80-75.9,144.8-169.5,144.8S77,531,77,451.1c0-37.7,17.8-71,44.5-97.7
			c76.9-76.9,76.1-96.6,76.1-189c0-22,24.6-37.4,49-37.4c25.2,0,50,15.4,50,37.6c0,92.2-0.1,113.6,75,188.7
			C398.2,380,416,413.4,416,451.1z"/>
	</g>
	<g>
		<linearGradient id="SVGID_17_" gradientUnits="userSpaceOnUse" x1="246.5" y1="127" x2="246.5" y2="595.8622">
			<stop  offset="0" style="stop-color:#91D7F2"/>
			<stop  offset="0.1238" style="stop-color:#93D3EF"/>
			<stop  offset="0.2599" style="stop-color:#9AC5E8"/>
			<stop  offset="0.4018" style="stop-color:#A5AFDC"/>
			<stop  offset="0.5478" style="stop-color:#B591CB"/>
			<stop  offset="0.6969" style="stop-color:#C969B5"/>
			<stop  offset="0.8483" style="stop-color:#E2389A"/>
			<stop  offset="1" style="stop-color:#FF007A"/>
		</linearGradient>
		<path class="st32" d="M416,451.1c0,80-75.9,144.8-169.5,144.8S77,531,77,451.1c0-37.7,17.8-71,44.5-97.7
			c76.9-76.9,76.1-96.6,76.1-189c0-22,24.6-37.4,49-37.4c25.2,0,50,15.4,50,37.6c0,92.2-0.1,113.6,75,188.7
			C398.2,380,416,413.4,416,451.1z"/>
	</g>
	<g>
		<linearGradient id="SVGID_18_" gradientUnits="userSpaceOnUse" x1="113.7348" y1="194.4098" x2="333.7491" y2="575.4857">
			<stop  offset="0" style="stop-color:#810464"/>
			<stop  offset="1" style="stop-color:#FF007A"/>
		</linearGradient>
		<path class="st33" d="M416,451.1c0,80-75.9,144.8-169.5,144.8S77,531,77,451.1c0-37.7,17.8-71,44.5-97.7
			c76.9-76.9,76.1-96.6,76.1-189c0-22,24.6-37.4,49-37.4c25.2,0,50,15.4,50,37.6c0,92.2-0.1,113.6,75,188.7
			C398.2,380,416,413.4,416,451.1z"/>
	</g>
	<path class="st34" d="M246.5,570.9c-79.7,0-144.5-53.7-144.5-119.8c0-35.5,20.2-63.1,37.1-80c80.4-80.4,83.4-106.5,83.4-204v-2.7
		c0-4.9,10.7-12.4,24-12.4c13.8,0,25,7.6,25,12.6v0.2c0,47.4,0,78.7,10.8,109c10.4,29.1,29.8,55.4,71.5,97.1
		c17,17,37.2,44.7,37.2,80.1C391,517.1,326.2,570.9,246.5,570.9z"/>
	<g class="st35">
		<linearGradient id="SVGID_19_" gradientUnits="userSpaceOnUse" x1="128.1955" y1="217.0361" x2="323.2392" y2="554.8616">
			<stop  offset="0" style="stop-color:#91D7F2"/>
			<stop  offset="1" style="stop-color:#FF007A"/>
		</linearGradient>
		<path class="st36" d="M248.5,571.9c-79.7,0-144.5-53.7-144.5-119.8c0-35.5,20.2-63.1,37.1-80c80.4-80.4,83.4-106.5,83.4-204v-2.7
			c0-4.9,10.7-12.4,24-12.4c13.8,0,25,7.6,25,12.6v0.2c0,47.4,0,78.7,10.8,109c10.4,29.1,29.8,55.4,71.5,97.1
			c17,17,37.2,44.7,37.2,80.1C393,518.1,328.2,571.9,248.5,571.9z"/>
	</g>
	<g class="st35">
		<linearGradient id="SVGID_20_" gradientUnits="userSpaceOnUse" x1="91.1834" y1="162.0066" x2="336.959" y2="587.7025">
			<stop  offset="0" style="stop-color:#91D7F2"/>
			<stop  offset="1" style="stop-color:#FF007A"/>
		</linearGradient>
		<path class="st37" d="M243.8,605.9c-108.4,0-196.6-73.1-196.6-162.9c0-48.3,27.5-85.9,50.5-108.9
			c98.7-98.7,111.7-137.2,113.3-241.3c4.9,1.8,15.5,5.9,33.5,5.9c18.7,0,29.9-5.4,33.4-7.6c0.5,44.6,2.9,78.1,14.6,110.8
			c14.1,39.5,40.5,75.3,97.3,132.1c23.1,23.1,50.6,60.8,50.6,109C440.4,532.9,352.2,605.9,243.8,605.9z"/>
	</g>
	<g class="st38">
		<g class="st10">
			<linearGradient id="SVGID_21_" gradientUnits="userSpaceOnUse" x1="113.7348" y1="194.4098" x2="333.7491" y2="575.4857">
				<stop  offset="0" style="stop-color:#91D7F2"/>
				<stop  offset="0.1214" style="stop-color:#9BC4E8"/>
				<stop  offset="0.3672" style="stop-color:#B494CC"/>
				<stop  offset="0.7112" style="stop-color:#DB46A1"/>
				<stop  offset="1" style="stop-color:#FF007A"/>
			</linearGradient>
			<path class="st39" d="M371.5,353.3c-75.1-75.1-75-96.5-75-188.7c0-22.2-24.8-37.6-50-37.6c-24.3,0-49,15.4-49,37.4
				c0,92.4,0.8,112.1-76.1,189C94.7,380.1,77,413.4,77,451.1c0,80,75.9,144.8,169.5,144.8S416,531,416,451.1
				C416,413.4,398.2,380,371.5,353.3z M247.5,571.9c-79.7,0-144.5-53.7-144.5-119.8c0-35.5,20.2-63.1,37.1-80
				c72.5-72.5,82.1-100.9,83.3-177.3c6.6,2.3,12.4,4.3,25.6,4.3c13.8,0,23-5,23.6-5.6c0.4,32.8,2.2,57.4,10.7,81.4
				c10.4,29.1,29.8,55.4,71.5,97.1c17,17,37.2,44.7,37.2,80.1C392,518.1,327.2,571.9,247.5,571.9z"/>
		</g>
	</g>
	<g class="st38">
		<g class="st10">
			<linearGradient id="SVGID_22_" gradientUnits="userSpaceOnUse" x1="113.7348" y1="194.4098" x2="333.7491" y2="575.4857">
				<stop  offset="0" style="stop-color:#91D7F2"/>
				<stop  offset="0.1214" style="stop-color:#9BC4E8"/>
				<stop  offset="0.3672" style="stop-color:#B494CC"/>
				<stop  offset="0.7112" style="stop-color:#DB46A1"/>
				<stop  offset="1" style="stop-color:#FF007A"/>
			</linearGradient>
			<path class="st40" d="M371.5,353.3c-75.1-75.1-75-96.5-75-188.7c0-22.2-24.8-37.6-50-37.6c-24.3,0-49,15.4-49,37.4
				c0,92.4,0.8,112.1-76.1,189C94.7,380.1,77,413.4,77,451.1c0,80,75.9,144.8,169.5,144.8S416,531,416,451.1
				C416,413.4,398.2,380,371.5,353.3z M247.5,571.9c-79.7,0-144.5-53.7-144.5-119.8c0-35.5,20.2-63.1,37.1-80
				c80.4-80.4,83.4-106.5,83.4-204v-2.7c0-4.9,10.7-12.4,24-12.4c13.8,0,25,7.6,25,12.6v0.2c0,47.4,0,78.7,10.8,109
				c10.4,29.1,29.8,55.4,71.5,97.1c17,17,37.2,44.7,37.2,80.1C392,518.1,327.2,571.9,247.5,571.9z"/>
		</g>
	</g>
	<g class="st41">
		<linearGradient id="SVGID_23_" gradientUnits="userSpaceOnUse" x1="101.981" y1="502.1302" x2="391.0186" y2="502.1302">
			<stop  offset="0" style="stop-color:#02084D"/>
			<stop  offset="1" style="stop-color:#91D7F2"/>
		</linearGradient>
		<path class="st42" d="M246.5,570.9c-79.7,0-144.5-53.7-144.5-119.8c111.2-59.6,169.3,55.3,289,0
			C391,517.1,326.2,570.9,246.5,570.9z"/>
	</g>
	<g class="st10">
		<path class="st15" d="M243.8,605.9c-108.4,0-196.6-73.1-196.6-162.9c151.3-81.1,230.2,75.2,393.2,0
			C440.4,532.9,352.2,605.9,243.8,605.9z"/>
	</g>
	<g>
		
			<radialGradient id="SVGID_24_" cx="246.5" cy="361.4311" r="204.5661" gradientTransform="matrix(1 0 0 1.15 0 -54.2147)" gradientUnits="userSpaceOnUse">
			<stop  offset="0" style="stop-color:#FF007A"/>
			<stop  offset="0.9511" style="stop-color:#94D2EF"/>
			<stop  offset="1" style="stop-color:#FFFFFF"/>
		</radialGradient>
		<path class="st43" d="M371.5,353.3c-75.1-75.1-75-96.5-75-188.7c0-22.2-24.8-37.6-50-37.6c-24.3,0-49,15.4-49,37.4
			c0,92.4,0.8,112.1-76.1,189C94.7,380.1,77,413.4,77,451.1c0,80,75.9,144.8,169.5,144.8S416,531,416,451.1
			C416,413.4,398.2,380,371.5,353.3z M247.8,571.3c-79.7,0-144.5-53.7-144.5-119.8c111.2-59.6,169.3,55.3,289,0
			C392.3,517.5,327.5,571.3,247.8,571.3z"/>
	</g>
	<g id="Ebene_29_Kopie_Kopie_2" class="st10">
		<g>
			<g>
				<path class="st15" d="M412.4,308.6C310.3,206.5,310.4,177.4,310.4,51.9c0-30.3-33.7-51.2-68-51.2c-33.1,0-66.6,20.9-66.6,50.9
					c0,125.7,1,152.5-103.5,257.1C35.9,345,11.8,390.4,11.8,441.7c0,108.8,103.2,196.9,230.6,196.9S473,550.4,473,441.7
					C473,390.4,448.8,345,412.4,308.6z M241.9,19.8c24.1,0,43.7,11.9,43.7,26.5c0,14.7-19.6,26.5-43.7,26.5S198.2,61,198.2,46.3
					C198.2,31.7,217.8,19.8,241.9,19.8z M243.8,605.9c-108.4,0-196.6-73.1-196.6-162.9c0-48.3,27.5-85.9,50.5-108.9
					c98.7-98.7,111.7-137.2,113.3-241.3c9,3.1,16.9,5.9,34.8,5.9c18.7,0,31.3-6.8,32-7.6c0.5,44.6,2.9,78.1,14.6,110.8
					c14.1,39.5,40.5,75.3,97.3,132.1c23.1,23.1,50.6,60.8,50.6,109C440.4,532.9,352.2,605.9,243.8,605.9z"/>
			</g>
		</g>
	</g>
	<g id="Ebene_29_Kopie_Kopie_Kopie_2">
		<ellipse class="st31" cx="241.9" cy="46.3" rx="43.7" ry="26.5"/>
	</g>
</g>
<g id="Ebene_29" class="st0">
	<ellipse class="st44" cx="247" cy="163" rx="49" ry="36"/>
</g>
<circle id="_x31_" class="st45" cx="242.5" cy="417.5" r="198.5"/>
<g id="_x31__1_" class="st0">
	<rect x="44" y="219" class="st46" width="397" height="397"/>
</g>
<g id="_x30_.618_Kopie_Kopie" class="st0">
	<rect x="196" y="67.4" class="st46" width="93.7" height="93.7"/>
</g>
<ellipse id="_x30_.618_-_0.764_-_H0.76" class="st45" cx="242.5" cy="111.3" rx="57.9" ry="44.3"/>
<circle id="_x30_.618_0.764_Kreis" class="st45" cx="242.5" cy="124.9" r="57.9"/>
<ellipse id="_x30_.618_Kreis_H0.76" class="st45" cx="242.5" cy="125.9" rx="75.8" ry="57.9"/>
<circle id="_x30_.618_Kreis" class="st45" cx="242.5" cy="143.8" r="75.8"/>
<g id="_x30_.764_Kopie" class="st0">
	<rect x="184.9" y="67.4" class="st46" width="115.8" height="115.8"/>
</g>
<g id="_x30_.618_Kopie_2" class="st0">
	<rect x="119" y="370.7" class="st46" width="245.3" height="245.3"/>
</g>
<g id="_x30_.618" class="st0">
	<rect x="119" y="370.7" class="st46" width="245.3" height="245.3"/>
</g>
<g id="_x31_.382" class="st0">
	<rect x="44" y="67.3" class="st46" width="397" height="548.7"/>
</g>
<g id="Hilfslinien">
</g>
</svg>
